<?xml version="1.0" encoding="utf-8"?>
<!-- Generator: Adobe Illustrator 24.1.2, SVG Export Plug-In . SVG Version: 6.00 Build 0)  -->
<svg version="1.1" id="MY_NEW_LOGO" xmlns="http://www.w3.org/2000/svg" xmlns:xlink="http://www.w3.org/1999/xlink" x="0px"
	 y="0px" viewBox="0 0 98.5 46" style="enable-background:new 0 0 98.5 46;" xml:space="preserve">
<style type="text/css">
	.st0{fill:#4181C3;}
	.st1{fill:none;}
</style>
<g>
	<g>
		<path class="st0" d="M25.2,32h23.5c0,0.5-0.5,1.8-0.7,2.1H25.2V32z"/>
		<path class="st0" d="M25.2,11.7h22.8c0.2,0.4,0.6,1.7,0.7,2.1H25.2V11.7z"/>
		<path class="st0" d="M29.5,23.9h16.3c0.5,0.4,1.5,1.6,1.9,2.1H29.5V23.9z"/>
		<path class="st0" d="M42.2,30.1H49c0-0.6-0.2-1.7-0.4-2.1h-6.4V30.1z"/>
		<path class="st0" d="M29.5,22h16.3c0.5-0.4,1.5-1.6,1.9-2.1H29.5V22z"/>
		<path class="st0" d="M42.2,15.8h6.8c0,0.5-0.2,1.7-0.4,2.1h-6.4V15.8z"/>
		<path class="st0" d="M25.2,36.1h21.2c-1.9,1.6-3.5,2.1-6.5,2.1h-2.1H25.2V36.1z"/>
		<path class="st0" d="M25.2,9.8h21.2c-1.9-1.6-3.5-2.1-6.5-2.1h-2.1H25.2V9.8z"/>
		<rect x="8.3" y="7.7" class="st0" width="14.8" height="2.1"/>
		<rect x="8.3" y="11.7" class="st0" width="14.8" height="2.1"/>
		<rect x="8.3" y="32" class="st0" width="14.8" height="2.1"/>
		<rect x="12.5" y="28" class="st0" width="6.4" height="2.1"/>
		<rect x="12.5" y="23.9" class="st0" width="6.4" height="2.1"/>
		<rect x="12.5" y="19.8" class="st0" width="6.4" height="2.1"/>
		<rect x="12.5" y="15.8" class="st0" width="6.4" height="2.1"/>
		<rect x="29.5" y="28" class="st0" width="6.4" height="2.1"/>
		<rect x="29.5" y="15.8" class="st0" width="6.4" height="2.1"/>
		<polygon class="st0" points="64.6,30.1 70.5,30.1 71.3,28 63.9,28 		"/>
		<polygon class="st0" points="63.2,26.1 71.9,26.1 72.7,23.9 62.5,23.9 		"/>
		<rect x="8.3" y="36.1" class="st0" width="14.8" height="2.1"/>
		<polygon class="st0" points="67.5,38.2 67.7,38.2 68.4,36.1 66.7,36.1 		"/>
		<rect x="54.9" y="28" class="st0" width="6.4" height="2.1"/>
		<rect x="54.9" y="23.9" class="st0" width="6.4" height="2.1"/>
		<rect x="50.6" y="36.1" class="st0" width="10.6" height="2.1"/>
		<rect x="50.6" y="32" class="st0" width="10.6" height="2.1"/>
		<polygon class="st0" points="66.1,34.2 69.1,34.2 69.9,32 65.3,32 		"/>
		<rect x="73.9" y="28" class="st0" width="6.4" height="2.1"/>
		<rect x="73.9" y="23.9" class="st0" width="6.4" height="2.1"/>
		<rect x="73.9" y="36.1" class="st0" width="10.6" height="2.1"/>
		<rect x="73.9" y="32" class="st0" width="10.6" height="2.1"/>
		<polygon class="st0" points="65.5,15.8 54.9,15.8 54.9,17.9 66.2,17.9 		"/>
		<polygon class="st0" points="68.3,19.8 67.6,21.8 66.9,19.8 54.9,19.8 54.9,22 61.2,22 61.2,20.3 61.8,22 73.4,22 73.9,20.3 
			73.9,20.3 73.9,20.3 73.9,22 80.3,22 80.3,19.8 		"/>
		<polygon class="st0" points="62.6,7.7 50.6,7.7 50.6,9.8 63.4,9.8 		"/>
		<polygon class="st0" points="64,11.7 50.6,11.7 50.6,13.9 64.8,13.9 		"/>
		<polygon class="st0" points="69.7,15.8 80.3,15.8 80.3,17.9 68.9,17.9 		"/>
		<polygon class="st0" points="72.6,7.7 84.5,7.7 84.5,9.8 71.8,9.8 		"/>
		<polygon class="st0" points="71.1,11.7 84.5,11.7 84.5,13.9 70.4,13.9 		"/>
	</g>
	<path class="st0" d="M86.8,36.6c0-0.9,0.8-1.7,1.7-1.7c0.9,0,1.7,0.8,1.7,1.7c0,0.9-0.7,1.7-1.7,1.7C87.6,38.3,86.8,37.6,86.8,36.6
		z M89.9,36.6c0-0.8-0.6-1.5-1.4-1.5c-0.8,0-1.4,0.6-1.4,1.5c0,0.8,0.6,1.5,1.4,1.5C89.3,38.1,89.9,37.5,89.9,36.6z M89.4,37.6h-0.3
		l-0.5-0.9h-0.4v0.9h-0.2v-1.9h0.8c0.5,0,0.7,0.2,0.7,0.5c0,0.4-0.3,0.5-0.6,0.5L89.4,37.6z M88.5,36.5c0.3,0,0.7,0,0.7-0.3
		c0-0.3-0.2-0.3-0.5-0.3h-0.5v0.7H88.5z"/>
	<rect x="87.6" y="35" class="st1" width="2.6" height="3.4"/>
</g>
</svg>
